{"data":{"data":[{"_id":"675bf9cf103cad50398b06fe","artikul":"1101-0001","nameukr":"1101-0001 Кулька 10\" Металік асорті","namerus":"1101-0001 И 10\" Металлик ассорти","zone":"18-1-1","marker":"3","__v":0,"btradeStock":{"value":20600,"date":"2024-12-27T13:08:47.204Z","_id":"676ea6df976275ccfcdc90b7"}},{"_id":"675bf9cf103cad50398b0703","artikul":"1101-0002","nameukr":"1101-0002 Кулька 10\" Неон асорті","namerus":"1101-0002 И 10\" Неон ассорти","zone":"18-1-1","marker":"3","__v":0,"btradeStock":{"value":29700,"date":"2024-12-27T13:08:47.523Z","_id":"676ea6df976275ccfcdc90b9"}},{"_id":"675bf9cf103cad50398b0705","artikul":"1101-0014","nameukr":"1101-0014 Кулька 3\" Пастель асорті","namerus":"1101-0014 И 3\" Пастель ассорти ","zone":"18-1-2","marker":"3","__v":0,"btradeStock":{"value":0,"date":"2024-12-27T13:08:47.811Z","_id":"676ea6df976275ccfcdc90bb"}},{"_id":"675bf9cf103cad50398b0707","artikul":"1101-0003","nameukr":"1101-0003 Кулька 10\" Пастель асорті","namerus":"1101-0003 И 10\" Пастель ассорти","zone":"18-1-1","marker":"3","__v":0,"btradeStock":{"value":108900,"date":"2024-12-27T13:08:48.107Z","_id":"676ea6e0976275ccfcdc90bd"}},{"_id":"675bf9cf103cad50398b0709","artikul":"1101-0017","nameukr":"1101-0017 Кулька 5\" Металік асорті","namerus":"1101-0017 5\" Металлик ассорти","zone":"18-1-2","marker":"3","__v":0,"btradeStock":{"value":9600,"date":"2024-12-27T13:08:48.409Z","_id":"676ea6e0976275ccfcdc90bf"}},{"_id":"675bf9cf103cad50398b070b","artikul":"1101-0018","nameukr":"1101-0018 Кулька 5\" Пастель асорті","namerus":"1101-0018 5\" Пастель ассорти","zone":"18-1-2","marker":"3","__v":0,"btradeStock":{"value":65300,"date":"2024-12-27T13:08:48.747Z","_id":"676ea6e0976275ccfcdc90c1"}},{"_id":"675bf9cf103cad50398b070d","artikul":"1101-0004","nameukr":"1101-0004 Кулька 11\" Металік асорті","namerus":"1101-0004 И 11\" Металлик ассорти","zone":"18-1-1","marker":"3","__v":0,"btradeStock":{"value":9500,"date":"2024-12-27T13:08:49.026Z","_id":"676ea6e1976275ccfcdc90c3"}},{"_id":"675bf9cf103cad50398b0710","artikul":"1101-0005","nameukr":"1101-0005 Кулька 12\" Неон асорті","namerus":"1101-0005 И 12\" Неон ассорти","zone":"18-1-1","marker":"3","__v":0,"btradeStock":{"value":2300,"date":"2024-12-27T13:08:49.336Z","_id":"676ea6e1976275ccfcdc90c5"}},{"_id":"675bf9cf103cad50398b0713","artikul":"1101-0021","nameukr":"1101-0021 Кулька 7\" Неон асорті","namerus":"1101-0021 7\" Неон ассорти ","zone":"18-1-2","marker":"3","__v":0,"btradeStock":{"value":66200,"date":"2024-12-27T13:08:49.626Z","_id":"676ea6e1976275ccfcdc90c7"}},{"_id":"675bf9cf103cad50398b0715","artikul":"1101-0006","nameukr":"1101-0006 Кулька 12\" Пастель асорті","namerus":"1101-0006 И 12\" Пастель ассорти","zone":"18-1-1","marker":"3","__v":0,"btradeStock":{"value":29700,"date":"2024-12-27T13:08:49.922Z","_id":"676ea6e1976275ccfcdc90c9"}}],"total":5221,"page":1,"totalPages":523},"timestamp":1740734372953}